(module olin-logo (layer F.Cu) (tedit 0)
  (fp_text reference G*** (at 0 0) (layer F.SilkS) hide
    (effects (font (size 1.524 1.524) (thickness 0.3)))
  )
  (fp_text value LOGO (at 0.75 0) (layer F.SilkS) hide
    (effects (font (size 1.524 1.524) (thickness 0.3)))
  )
  (fp_poly (pts (xy 0.969977 -2.358097) (xy 0.334659 -1.990465) (xy -0.289162 -1.519228) (xy -0.879719 -0.967366)
    (xy -1.415244 -0.357856) (xy -1.87397 0.286322) (xy -2.234129 0.942188) (xy -2.302578 1.096636)
    (xy -2.437028 1.488476) (xy -2.51611 1.879503) (xy -2.536907 2.239027) (xy -2.496501 2.536356)
    (xy -2.450729 2.655439) (xy -2.400847 2.757215) (xy -2.388586 2.819539) (xy -2.430913 2.843597)
    (xy -2.544794 2.830578) (xy -2.747197 2.781669) (xy -3.055089 2.698057) (xy -3.056019 2.697802)
    (xy -3.76589 2.471562) (xy -4.361202 2.21252) (xy -4.851301 1.915754) (xy -5.245531 1.576342)
    (xy -5.303898 1.513814) (xy -5.566789 1.145355) (xy -5.708142 0.763595) (xy -5.731895 0.374842)
    (xy -5.641987 -0.014596) (xy -5.442356 -0.398411) (xy -5.136941 -0.770297) (xy -4.729681 -1.123946)
    (xy -4.224514 -1.453051) (xy -3.62538 -1.751303) (xy -3.147088 -1.940167) (xy -2.442146 -2.16409)
    (xy -1.734574 -2.328619) (xy -0.989687 -2.439752) (xy -0.172805 -2.503486) (xy 0.1905 -2.517295)
    (xy 1.36525 -2.550286) (xy 0.969977 -2.358097)) (layer F.SilkS) (width 0.01))
  (fp_poly (pts (xy 2.711171 -2.378276) (xy 2.872448 -2.340961) (xy 3.11659 -2.273296) (xy 3.406279 -2.185982)
    (xy 3.6195 -2.117813) (xy 4.264197 -1.868855) (xy 4.803808 -1.582334) (xy 5.235792 -1.263543)
    (xy 5.557606 -0.917779) (xy 5.766707 -0.550336) (xy 5.860555 -0.166507) (xy 5.836606 0.228411)
    (xy 5.692319 0.629125) (xy 5.425152 1.030339) (xy 5.23248 1.241758) (xy 4.768578 1.628835)
    (xy 4.197212 1.976482) (xy 3.533023 2.280193) (xy 2.790651 2.535466) (xy 1.984734 2.737796)
    (xy 1.129914 2.88268) (xy 0.24083 2.965612) (xy -0.431878 2.984449) (xy -1.23825 2.984399)
    (xy -0.839729 2.795867) (xy -0.302893 2.497737) (xy 0.224709 2.122116) (xy 0.730961 1.684442)
    (xy 1.203743 1.200156) (xy 1.630937 0.684695) (xy 2.000425 0.153499) (xy 2.300088 -0.377994)
    (xy 2.517809 -0.894344) (xy 2.641468 -1.380114) (xy 2.66566 -1.670029) (xy 2.647663 -1.929345)
    (xy 2.598956 -2.153271) (xy 2.568296 -2.229179) (xy 2.469592 -2.420051) (xy 2.711171 -2.378276)) (layer F.SilkS) (width 0.01))
)
